%YAML 1.1
%TAG !u! tag:unity3d.com,2011:
--- !u!21 &2100000
Material:
  serializedVersion: 6
  m_ObjectHideFlags: 0
  m_CorrespondingSourceObject: {fileID: 0}
  m_PrefabInstance: {fileID: 0}
  m_PrefabAsset: {fileID: 0}
  m_Name: Castle
  m_Shader: {fileID: 4800000, guid: e205ec5a2dab342e78812532c2f67fd5, type: 3}
  m_ShaderKeywords: BACK_GRADIENT_ON COLR_1_2 FRONT_GRADIENT_ON LEFT_GRADIENT_ON LIGHTMAP_COLR_ON
    RIGHT_GRADIENT_ON
  m_LightmapFlags: 5
  m_EnableInstancingVariants: 0
  m_DoubleSidedGI: 0
  m_CustomRenderQueue: 2000
  stringTagMap: {}
  disabledShaderPasses: []
  m_SavedProperties:
    serializedVersion: 3
    m_TexEnvs:
    - _LayoutTexture:
        m_Texture: {fileID: 0}
        m_Scale: {x: 1, y: 1}
        m_Offset: {x: 0, y: 0}
    - _MainTex:
        m_Texture: {fileID: 0}
        m_Scale: {x: 1, y: 1}
        m_Offset: {x: 0, y: 0}
    m_Floats:
    - _AmbientPower: 0.29
    - _DistanceNear: 50
    - _EdgePower: 0.5
    - _FogAnimationFreq: 0.1
    - _FogAnimationHeight: 0.1
    - _FogDensity: 1
    - _FogEnd: 50
    - _FogHeight: 126.5
    - _FogStart: 0
    - _FogYStartPos: -66.6
    - _GradientHeight: 57.2
    - _GradientYStartPos: -9.7
    - _IsWorldSpace: 1
    - _LayoutTexturePower: 0
    - _LightmapPower: 0.79
    - _MaxY: 50
    - _MinY: -50
    - _RimPower: 0.15
    - _ShadowPower: 1
    - _UseFogDistance: 0
    - _UseLightMap: 1
    m_Colors:
    - _AmbientColor: {r: 0.48627454, g: 0.6901961, b: 0.78823537, a: 0}
    - _BackBottomColor: {r: 0.17254902, g: 0.5921569, b: 0.8000001, a: 0}
    - _BackColor: {r: 0.91372555, g: 0.54901963, b: 0.7411765, a: 0}
    - _BackTopColor: {r: 0.91372555, g: 0.54901963, b: 0.7411765, a: 0}
    - _BaseScale: {r: 1, g: 1, b: 1, a: 0}
    - _BottomColor: {r: 0.093425594, g: 0.6491467, b: 0.7941176, a: 0}
    - _Color: {r: 1, g: 1, b: 1, a: 1}
    - _ColorFar: {r: 0.89705896, g: 0, b: 1, a: 1}
    - _ColorNear: {r: 0, g: 1, b: 1, a: 1}
    - _EdgeColor: {r: 0, g: 0, b: 0, a: 0}
    - _FogColor: {r: 1, g: 1, b: 1, a: 1}
    - _FrontBottomColor: {r: 0.6666667, g: 0.38823533, b: 0.34117648, a: 0}
    - _FrontColor: {r: 0.9725491, g: 0.8313726, b: 0.6431373, a: 0}
    - _FrontTopColor: {r: 0.9725491, g: 0.8313726, b: 0.6431373, a: 0}
    - _LeftBottomColor: {r: 0.15686275, g: 0.31764707, b: 0.45098042, a: 0}
    - _LeftColor: {r: 0, g: 0, b: 0.7058823, a: 0}
    - _LeftTopColor: {r: 0.027450982, g: 0.13333334, b: 0.7058824, a: 0}
    - _LightTint: {r: 1, g: 1, b: 1, a: 0}
    - _LightmapColor: {r: 0.49264705, g: 0.08693771, b: 0.19605942, a: 0}
    - _Point: {r: -38.3, g: 25.26, b: -4.15, a: 1}
    - _RightBottomColor: {r: 0.9725491, g: 0.8313726, b: 0.6431373, a: 0}
    - _RightColor: {r: 0.73333335, g: 0.47450984, b: 0.41176474, a: 0}
    - _RightTopColor: {r: 0.73333335, g: 0.47450984, b: 0.41176474, a: 0}
    - _RimColor: {r: 0, g: 1, b: 0, a: 0}
    - _TopColor: {r: 0.9513185, g: 1, b: 0.64705884, a: 0}
